__S0 F7C 0 ABS 0
__S1 49 0 ABS 0
__S2 0 0 ABS 0
__S4 0 0 ABS 0
__S5 0 0 ABS 0
__Hintentry 0 0 ABS 0
__Lintentry 0 0 ABS 0
_prec 25 0 COMRAM 1
_main EF0 0 CODE 0
___sp 0 0 STACK 2
start 0 0 CODE 0
_nout 21 0 COMRAM 1
printf@ap 45 0 COMRAM 1
_TXREG FAD 0 ABS 0
__Hirdata 0 0 CODE 0
__Lirdata 0 0 CODE 0
__HRAM 0 0 ABS 0
__LRAM 1 0 ABS 0
__size_of_vfprintf 0 0 ABS 0
__Hconfig 30000E 0 CONFIG 4
__Lconfig 0 0 CONFIG 4
__Hbigram 0 0 ABS 0
__Lbigram 0 0 ABS 0
__Hrparam 0 0 COMRAM 1
__Lrparam 0 0 COMRAM 1
__Hram 0 0 ABS 0
__Lram 0 0 ABS 0
__Hcomram 0 0 ABS 0
_putch F60 0 CODE 0
__Lcomram 0 0 ABS 0
_fputc DFC 0 CODE 0
_width 23 0 COMRAM 1
__Hsfr 0 0 ABS 0
__Lsfr 0 0 ABS 0
_flags 27 0 COMRAM 1
__Hbss 0 0 RAM 1
__Lbss 0 0 RAM 1
___param_bank 0 0 ABS 0
__Hnvrram 0 0 COMRAM 1
__Lnvrram 0 0 COMRAM 1
_vfprintf E92 0 CODE 0
__end_of_vfpfcnvrt DFC 0 CODE 0
putch@data 29 0 COMRAM 1
__end_of_putch F76 0 CODE 0
__Heeprom_data 0 0 EEDATA 0
__Leeprom_data 0 0 EEDATA 0
_PIR1bits F9E 0 ABS 0
__Hintsave_regs 0 0 BIGRAM 1
__Lintsave_regs 0 0 BIGRAM 1
__Hbigbss 0 0 BIGRAM 1
__Lbigbss 0 0 BIGRAM 1
__Hintret 0 0 ABS 0
__Lintret 0 0 ABS 0
__Hramtop D00 0 RAM 0
__Lramtop D00 0 RAM 0
__Hstruct 0 0 COMRAM 1
__Lstruct 0 0 COMRAM 1
__Hbigdata 0 0 BIGRAM 1
__Lbigdata 0 0 BIGRAM 1
__Hmediumconst 0 0 MEDIUMCONST 0
__Lmediumconst 0 0 MEDIUMCONST 0
__Hfarbss 0 0 FARRAM 0
__Lfarbss 0 0 FARRAM 0
__Hintcode 0 0 CODE 0
__Lintcode 0 0 CODE 0
__Hfardata 0 0 FARRAM 0
__Lfardata 0 0 FARRAM 0
__Habs1 0 0 ABS 0
__Labs1 0 0 ABS 0
__size_of_fputc 0 0 ABS 0
__HnvFARRAM 0 0 FARRAM 0
__LnvFARRAM 0 0 FARRAM 0
fputc@c 2A 0 COMRAM 1
__Hdata 0 0 ABS 0
__Ldata 0 0 ABS 0
stackhi CFF 0 ABS 0
_printf F20 0 CODE 0
__Htemp 0 0 COMRAM 1
__Ltemp 0 0 COMRAM 1
stacklo 60 0 ABS 0
__Hrbit 0 0 COMRAM 1
__Lrbit 0 0 COMRAM 1
__Hinit 4 0 CODE 0
__Linit 0 0 CODE 0
__Hintcodelo 0 0 CODE 0
__Lintcodelo 0 0 CODE 0
__Hrbss 0 0 COMRAM 1
__end_of_main F20 0 CODE 0
__size_of_init_uart 0 0 ABS 0
__Lrbss 0 0 COMRAM 1
__Htext 0 0 ABS 0
__Ltext 0 0 ABS 0
?_vfprintf 39 0 COMRAM 1
end_of_initialization F52 0 CODE 0
printf@fmt 41 0 COMRAM 1
vfprintf@fmt 3B 0 COMRAM 1
__size_of_putch 0 0 ABS 0
vfprintf@ap 3D 0 COMRAM 1
_RCSTAbits FAB 0 ABS 0
_TXSTAbits FAC 0 ABS 0
__end_of_init_uart F7C 0 CODE 0
__Hibigdata 0 0 CODE 0
__Libigdata 0 0 CODE 0
__Hifardata 0 0 CODE 0
__Lifardata 0 0 CODE 0
__Hbank0 0 0 ABS 0
__Lbank0 0 0 ABS 0
__Hbank1 0 0 ABS 0
__Lbank1 0 0 ABS 0
__Hbank2 0 0 ABS 0
__Lbank2 0 0 ABS 0
_init_uart F76 0 CODE 0
__Hbank3 0 0 ABS 0
__Lbank3 0 0 ABS 0
__Hbank4 0 0 ABS 0
__Lbank4 0 0 ABS 0
__Hbank5 0 0 ABS 0
__Lbank5 0 0 ABS 0
vfprintf@fp 39 0 COMRAM 1
__Hpowerup 0 0 CODE 0
__Lpowerup 0 0 CODE 0
__Hbank6 0 0 ABS 0
__Lbank6 0 0 ABS 0
__Hbank7 0 0 ABS 0
__Lbank7 0 0 ABS 0
__Hbank8 0 0 ABS 0
__Lbank8 0 0 ABS 0
__Htext0 0 0 ABS 0
__Ltext0 0 0 ABS 0
__Hbank9 0 0 ABS 0
__Lbank9 0 0 ABS 0
__Htext1 0 0 ABS 0
__Ltext1 0 0 ABS 0
__ptext0 EF0 0 CODE 0
__Htext2 0 0 ABS 0
__Ltext2 0 0 ABS 0
__ptext1 F20 0 CODE 0
__Htext3 0 0 ABS 0
__Ltext3 0 0 ABS 0
__ptext2 E92 0 CODE 0
__Htext4 0 0 ABS 0
__Ltext4 0 0 ABS 0
__ptext3 D12 0 CODE 0
__Htext5 0 0 ABS 0
__Ltext5 0 0 ABS 0
__ptext4 DFC 0 CODE 0
__Htext6 0 0 ABS 0
__Ltext6 0 0 ABS 0
__ptext5 F60 0 CODE 0
__ptext6 F76 0 CODE 0
__HbssCOMRAM 0 0 ABS 0
__LbssCOMRAM 0 0 ABS 0
__pbssCOMRAM 1 0 COMRAM 1
_vfpfcnvrt D12 0 CODE 0
__Hclrtext 0 0 ABS 0
__Lclrtext 0 0 ABS 0
__size_of_printf 0 0 ABS 0
__end_of__initialization F52 0 CODE 0
___rparam_used 1 0 ABS 0
__Hidata 0 0 CODE 0
__Lidata 0 0 CODE 0
__Hrdata 0 0 COMRAM 1
__Lrdata 0 0 COMRAM 1
fputc@fp 2C 0 COMRAM 1
__Hidloc 200008 0 IDLOC 5
__Lidloc 0 0 IDLOC 5
__Hstack 0 0 STACK 2
__Lstack 0 0 STACK 2
__Hparam 0 0 COMRAM 1
__Lparam 0 0 COMRAM 1
__Hspace_0 F7C 0 ABS 0
__HcstackCOMRAM 0 0 ABS 0
__Lspace_0 0 0 ABS 0
__LcstackCOMRAM 0 0 ABS 0
__pcstackCOMRAM 29 0 COMRAM 1
?_printf 41 0 COMRAM 1
__Hspace_1 49 0 ABS 0
__Lspace_1 0 0 ABS 0
__Hsmallconst D12 0 SMALLCONST 0
__Lsmallconst D00 0 SMALLCONST 0
__psmallconst D00 0 SMALLCONST 0
__Hspace_2 0 0 ABS 0
__Lspace_2 0 0 ABS 0
__Hnvbit 0 0 COMRAM 1
__Lnvbit 0 0 COMRAM 1
__Hcinit 0 0 ABS 0
__Lcinit 0 0 ABS 0
__pcinit F46 0 CODE 0
__ramtop D00 0 RAM 0
__mediumconst 0 0 MEDIUMCONST 0
__size_of_main 0 0 ABS 0
__end_of_fputc E92 0 CODE 0
__Hconst 0 0 CONST 0
__Lconst 0 0 CONST 0
__Hspace_4 60000E 0 ABS 0
__Lspace_4 0 0 ABS 0
__Hbank10 0 0 ABS 0
__Lbank10 0 0 ABS 0
__Hbank11 0 0 ABS 0
__Lbank11 0 0 ABS 0
__Hbank12 0 0 ABS 0
__Lbank12 0 0 ABS 0
___inthi_sp 0 0 STACK 2
__end_of_printf F46 0 CODE 0
___intlo_sp 0 0 STACK 2
vfpfcnvrt@fmt 35 0 COMRAM 1
__smallconst D00 0 SMALLCONST 0
__Hreset_vec 0 0 CODE 0
__Lreset_vec 0 0 CODE 0
vfpfcnvrt@ap 37 0 COMRAM 1
__accesstop 60 0 ABS 0
__Hintcode_body 0 0 ABS 0
__Lintcode_body 0 0 ABS 0
intlevel0 0 0 CODE 0
intlevel1 0 0 CODE 0
vfprintf@cfmt 3F 0 COMRAM 1
intlevel2 0 0 CODE 0
intlevel3 0 0 CODE 0
__end_of_vfprintf EF0 0 CODE 0
start_initialization F46 0 CODE 0
?_vfpfcnvrt 33 0 COMRAM 1
vfpfcnvrt@fp 33 0 COMRAM 1
__initialization F46 0 CODE 0
__activetblptr 1 0 ABS 0
__size_of_vfpfcnvrt 0 0 ABS 0
%segments
reset_vec 0 3 CODE 0 0
smallconst D00 D11 SMALLCONST D00 0
bssCOMRAM 1 48 COMRAM 1 1
text3 D12 F7B CODE D12 0
%locals
dist/default/debug\Printing.X.debug.o
C:/Program Files (x86)/Microchip/MPLABX/v5.40/packs/Microchip/PIC18Fxxxx_DFP/1.2.26/xc8\pic\include\proc\pic18lf4685.h
C:\Users\Julie\AppData\Local\Temp\scl4x.s
1025 F46 0 CODE 0
1027 F46 0 CODE 0
1030 F46 0 CODE 0
1049 F46 0 CODE 0
1050 F4A 0 CODE 0
1051 F4C 0 CODE 0
1052 F4C 0 CODE 0
1053 F4E 0 CODE 0
1054 F50 0 CODE 0
1060 F52 0 CODE 0
1063 F52 0 CODE 0
1064 F54 0 CODE 0
1065 F56 0 CODE 0
1066 F58 0 CODE 0
1067 F5A 0 CODE 0
1068 F5C 0 CODE 0
main.c
19 EF0 0 CODE 0
21 EF0 0 CODE 0
25 EF4 0 CODE 0
26 F00 0 CODE 0
C:\Program Files\Microchip\xc8\v2.30\pic\sources\c99\common\printf.c
5 F20 0 CODE 0
9 F20 0 CODE 0
10 F28 0 CODE 0
13 F44 0 CODE 0
C:\Program Files\Microchip\xc8\v2.30\pic\sources\c99\common\doprnt.c
1390 E92 0 CODE 0
1395 E92 0 CODE 0
1396 E9A 0 CODE 0
1397 EA2 0 CODE 0
1398 EA6 0 CODE 0
1397 ECA 0 CODE 0
1400 EE6 0 CODE 0
1404 EEE 0 CODE 0
C:\Program Files\Microchip\xc8\v2.30\pic\sources\c99\common\doprnt.c
692 D12 0 CODE 0
702 D12 0 CODE 0
703 D36 0 CODE 0
705 D44 0 CODE 0
706 D54 0 CODE 0
1372 D58 0 CODE 0
1373 D7C 0 CODE 0
1374 D8A 0 CODE 0
1375 D9E 0 CODE 0
1379 DAA 0 CODE 0
1380 DB8 0 CODE 0
1384 DC4 0 CODE 0
1385 DE8 0 CODE 0
1387 DFA 0 CODE 0
C:\Program Files\Microchip\xc8\v2.30\pic\sources\c99\common\nf_fputc.c
8 DFC 0 CODE 0
12 DFC 0 CODE 0
13 E20 0 CODE 0
14 E26 0 CODE 0
15 E2A 0 CODE 0
20 E7E 0 CODE 0
24 E90 0 CODE 0
./UART.h
15 F60 0 CODE 0
18 F62 0 CODE 0
19 F62 0 CODE 0
18 F62 0 CODE 0
20 F70 0 CODE 0
21 F74 0 CODE 0
./UART.h
8 F76 0 CODE 0
11 F76 0 CODE 0
12 F78 0 CODE 0
13 F7A 0 CODE 0
